{
  "title":"Recipe Puppy",
  "version":0.1,
  "href":"http:\/\/www.recipepuppy.com\/",
  "results":[
    {
      "title":"Savoury Deviled Eggs",
      "href":"http:\/\/www.kraftfoods.com\/kf\/recipes\/savory-deviled-eggs-55779.aspx",
      "ingredients":"eggs",
      "thumbnail":"http:\/\/img.recipepuppy.com\/627470.jpg"
    },
    {
      "title":"Easy Poached Eggs Recipe Recipe",
      "href":"http:\/\/www.grouprecipes.com\/26981\/easy-poached-eggs-recipe.html",
      "ingredients":"eggs",
      "thumbnail":""
    },
    {
      "title":"Easter Hard Boiled Eggs",
      "href":"http:\/\/www.bigoven.com\/170096-Easter-Hard-Boiled-Eggs-recipe.html",
      "ingredients":"eggs, eggs",
      "thumbnail":"http:\/\/img.recipepuppy.com\/643596.jpg"
    },
    {
      "title":"Vanilla Bean Flans with Agave Syrup & Caramelized Walnuts",
      "href":"http:\/\/www.eatingwell.com\/recipes\/vanilla_flan_caramelized_nuts.html",
      "ingredients":"eggs",
      "thumbnail":"http:\/\/img.recipepuppy.com\/697967.jpg"
    },
    {
      "title":"Pear Bundt Cake",
      "href":"http:\/\/allrecipes.com\/Recipe\/Pear-Bundt-Cake\/Detail.aspx",
      "ingredients":"powdered sugar, eggs, egg whites",
      "thumbnail":"http:\/\/img.recipepuppy.com\/11660.jpg"
    },
    {
      "title":"Chili-Cheese Corn Muffins",
      "href":"http:\/\/allrecipes.com\/Recipe\/Chili-Cheese-Corn-Muffins\/Detail.aspx",
      "ingredients":"eggs, mexican cheese blend",
      "thumbnail":""
    },
    {
      "title":"Easy Omelette for 2 or 3, Paula Deen Style",
      "href":"http:\/\/www.recipezaar.com\/Easy-Omelette-for-2-or-3-Paula-Deen-Style-331810",
      "ingredients":"eggs, salt",
      "thumbnail":""
    },
    {
      "title":"Curried Eggs on Toast",
      "href":"http:\/\/www.recipezaar.com\/Curried-Eggs-on-Toast-62494",
      "ingredients":"bread, eggs",
      "thumbnail":"http:\/\/img.recipepuppy.com\/344174.jpg"
    },
    {
      "title":"Filomena's Pasta Fresca",
      "href":"http:\/\/www.recipezaar.com\/Filomenas-Pasta-Fresca-272132",
      "ingredients":"eggs, flour",
      "thumbnail":"http:\/\/img.recipepuppy.com\/563383.jpg"
    },
    {
      "title":"Garlic Dijon Grilling Sauce \r\n\t\t\r\n\t\r\n\t\t\r\n\t\r\n\t\t\r\n\t\r\n\t\r\n\r\n",
      "href":"http:\/\/www.kraftfoods.com\/kf\/recipes\/garlic-dijon-grilling-sauce-56449.aspx",
      "ingredients":"garlic, dijon mustard",
      "thumbnail":""
    },
    {
      "title":"Bruschetta With Roasted Garlic and Cherry Tomatoes",
      "href":"http:\/\/www.recipezaar.com\/Bruschetta-With-Roasted-Garlic-and-Cherry-Tomatoes-244281",
      "ingredients":"garlic, italian bread",
      "thumbnail":"http:\/\/img.recipepuppy.com\/199304.jpg"
    },
    {
      "title":"Garlic Butter for Steaks and Mash Potatoes",
      "href":"http:\/\/www.recipezaar.com\/garlic-butter-for-steaks-and-mash-potatoes-358993",
      "ingredients":"butter, garlic",
      "thumbnail":"http:\/\/img.recipepuppy.com\/642047.jpg"
    },
    {
      "title":"Garlic Vinegar",
      "href":"http:\/\/www.recipezaar.com\/Garlic-Vinegar-251602",
      "ingredients":"garlic, garlic, vinegar",
      "thumbnail":""
    },
    {
      "title":"Garlic Croutons",
      "href":"http:\/\/allrecipes.com\/Recipe\/Garlic-Croutons\/Detail.aspx",
      "ingredients":"butter, garlic",
      "thumbnail":""
    },
    {
      "title":"Kittencal's Do-Ahead Garlic",
      "href":"http:\/\/www.recipezaar.com\/Kittencals-Do-Ahead-Garlic-73596",
      "ingredients":"garlic, vegetable oil",
      "thumbnail":"http:\/\/img.recipepuppy.com\/40503.jpg"
    },
    {
      "title":"Roasted Garlic",
      "href":"http:\/\/allrecipes.com\/Recipe\/Roasted-Garlic\/Detail.aspx",
      "ingredients":"garlic, olive oil",
      "thumbnail":""
    },
    {
      "title":"White Bean Spread With Garlic & Rosemary",
      "href":"http:\/\/allrecipes.com\/Recipe\/White-Bean-Spread-With-Garlic--Rosemary\/Detail.aspx",
      "ingredients":"garlic, olive oil",
      "thumbnail":""
    },
    {
      "title":"Romano Cheese Crisp",
      "href":"http:\/\/allrecipes.com\/Recipe\/Romano-Cheese-Crisp\/Detail.aspx",
      "ingredients":"garlic, romano cheese",
      "thumbnail":""
    },
    {
      "title":"Creamy Scrambled Eggs Recipe Recipe",
      "href":"http:\/\/www.grouprecipes.com\/43522\/creamy-scrambled-eggs-recipe.html",
      "ingredients":"onions",
      "thumbnail":"http:\/\/img.recipepuppy.com\/373064.jpg"
    },
    {
      "title":"Blue Ribbon Meatloaf",
      "href":"http:\/\/www.eatingwell.com\/recipes\/meatloaf.html",
      "ingredients":"onions",
      "thumbnail":""
    },
    {
      "title":"Spaghetti with Clams & Corn",
      "href":"http:\/\/www.eatingwell.com\/recipes\/spaghetti_clams_corn.html",
      "ingredients":"onions",
      "thumbnail":"http:\/\/img.recipepuppy.com\/698569.jpg"
    },
    {
      "title":"Green Bean Casserole",
      "href":"http:\/\/www.eatingwell.com\/recipes\/healthy_green_bean_casserole.html",
      "ingredients":"onions",
      "thumbnail":""
    },
    {
      "title":"\nBroccoli Casserole\n\n",
      "href":"http:\/\/cookeatshare.com\/recipes\/broccoli-casserole-59082",
      "ingredients":"onions",
      "thumbnail":"http:\/\/img.recipepuppy.com\/780513.jpg"
    },
    {
      "title":"Crock Pot Caramelized Onions",
      "href":"http:\/\/www.recipezaar.com\/Crock-Pot-Caramelized-Onions-191625",
      "ingredients":"butter, onions",
      "thumbnail":""
    },
    {
      "title":"Pulled Chicken Sandwiches (Crock Pot)",
      "href":"http:\/\/www.recipezaar.com\/Pulled-Chicken-Sandwiches-Crock-Pot-242547",
      "ingredients":"chicken, onions",
      "thumbnail":"http:\/\/img.recipepuppy.com\/107122.jpg"
    },
    {
      "title":"Grilled Chipotle Salmon With Pineapple Cilantro Rice",
      "href":"http:\/\/www.recipezaar.com\/Grilled-Chipotle-Salmon-With-Pineapple-Cilantro-Rice-128564",
      "ingredients":"salmon, onions",
      "thumbnail":"http:\/\/img.recipepuppy.com\/715159.jpg"
    },
    {
      "title":"Roast Chicken with Rosemary",
      "href":"http:\/\/allrecipes.com\/Recipe\/Roast-Chicken-with-Rosemary\/Detail.aspx",
      "ingredients":"onions, salt",
      "thumbnail":"http:\/\/img.recipepuppy.com\/18294.jpg"
    },
    {
      "title":"Boiled Ham",
      "href":"http:\/\/www.recipezaar.com\/Boiled-Ham-11162",
      "ingredients":"ham, onions",
      "thumbnail":""
    }
  ]
}